{
    "useYear": true,
    "useMonth": true,
    "dateLabel": "Hired in: ",
    "dateFilterLabel": "Hired in or after: ",
    "dateHelpText": "Filter records by employment month",
    "dateSortLabel": "hire month",
    "dateReversedSortLabel": "hire month reversed"
}
